push 64
rs 3
push 256
ls 4
xor 256
not
add 2048
pop a
c 12
add 17
j 18
; Subroutine
push 12
push 32
pop x
pop y
ret

push 78
popt z 0
popt z 1
pusht z 0
popt z -32
pusht z -32
pusht z 0
pusht z 1
pusht z -32
popt w -32
popt w 1
popt w 0